<?xml version="1.0" encoding="UTF-8"?>
<session version="1.0">
<refactoring comment="Delete resource &apos;proj/Src/se3.c&apos;" deleteContents="false" description="Delete resource &apos;proj/Src/se3.c&apos;" element1="/proj/Src/se3.c" flags="7" id="org.eclipse.ltk.core.refactoring.delete.resources" resources="1" stamp="1527225829903"/>
</session>